results/waveform_rational.vcd
$date
	Fri Nov 28 07:53:24 2025
$end
$version
	Icarus Verilog
$end
$timescale
	1ps
$end
$scope module tb_rational_resampler $end
$var wire 1 ! s2_valid $end
$var wire 16 " s2_data [15:0] $end
$var wire 1 # s1_valid $end
$var wire 16 $ s1_data [15:0] $end
$var parameter 64 % CLK_PERIOD $end
$var parameter 32 & DATA_WIDTH $end
$var parameter 32 ' L_FACTOR $end
$var parameter 32 ( L_TAPS_PER_PHASE $end
$var parameter 32 ) L_TAPS_TOTAL $end
$var parameter 32 * M_FACTOR $end
$var parameter 32 + M_TAPS_PER_PHASE $end
$var parameter 32 , M_TAPS_TOTAL $end
$var reg 1 - clk $end
$var reg 1 . rst_n $end
$var reg 16 / s0_data_i [15:0] $end
$var reg 1 0 s0_valid_i $end
$var integer 32 1 fd [31:0] $end
$scope module u_downsampler $end
$var wire 1 - clk $end
$var wire 1 . rst_n $end
$var wire 1 # valid_i $end
$var wire 16 2 data_i [15:0] $end
$var parameter 136 3 COEFF_FILE $end
$var parameter 32 4 COEFF_WIDTH $end
$var parameter 32 5 DATA_WIDTH $end
$var parameter 32 6 GAIN_BITS $end
$var parameter 1 7 IS_DECIMATION $end
$var parameter 32 8 PHASES $end
$var parameter 32 9 TAPS_PER_PHASE $end
$var parameter 32 : TOTAL_TAPS $end
$var reg 1 ; active_cycle $end
$var reg 16 < data_o [15:0] $end
$var reg 32 = product_sum [31:0] $end
$var reg 2 > state [1:0] $end
$var reg 1 ! valid_o $end
$var integer 32 ? phase_counter [31:0] $end
$scope begin $ivl_for_loop0 $end
$var integer 32 @ i [31:0] $end
$upscope $end
$scope begin $ivl_for_loop1 $end
$var integer 32 A i [31:0] $end
$upscope $end
$scope begin $ivl_for_loop2 $end
$var integer 32 B i [31:0] $end
$upscope $end
$scope begin $ivl_for_loop3 $end
$scope begin $ivl_for_loop4 $end
$scope begin $unm_blk_14 $end
$upscope $end
$upscope $end
$upscope $end
$scope begin $unm_blk_21 $end
$var integer 32 C current_p [31:0] $end
$scope begin $ivl_for_loop5 $end
$var integer 32 D m [31:0] $end
$scope begin $ivl_for_loop6 $end
$var integer 32 E t [31:0] $end
$upscope $end
$upscope $end
$scope begin $unm_blk_28 $end
$var reg 32 F final_val [31:0] $end
$upscope $end
$upscope $end
$upscope $end
$scope module u_upsampler $end
$var wire 1 - clk $end
$var wire 16 G data_i [15:0] $end
$var wire 1 . rst_n $end
$var wire 1 0 valid_i $end
$var parameter 136 H COEFF_FILE $end
$var parameter 32 I COEFF_WIDTH $end
$var parameter 32 J DATA_WIDTH $end
$var parameter 32 K GAIN_BITS $end
$var parameter 1 L IS_DECIMATION $end
$var parameter 32 M PHASES $end
$var parameter 32 N TAPS_PER_PHASE $end
$var parameter 32 O TOTAL_TAPS $end
$var reg 1 P active_cycle $end
$var reg 16 Q data_o [15:0] $end
$var reg 32 R product_sum [31:0] $end
$var reg 2 S state [1:0] $end
$var reg 1 # valid_o $end
$var integer 32 T phase_counter [31:0] $end
$scope begin $ivl_for_loop0 $end
$var integer 32 U i [31:0] $end
$upscope $end
$scope begin $ivl_for_loop1 $end
$var integer 32 V i [31:0] $end
$upscope $end
$scope begin $ivl_for_loop2 $end
$var integer 32 W i [31:0] $end
$upscope $end
$scope begin $ivl_for_loop3 $end
$var integer 32 X m [31:0] $end
$scope begin $ivl_for_loop4 $end
$var integer 32 Y t [31:0] $end
$scope begin $unm_blk_14 $end
$var integer 32 Z current_p [31:0] $end
$upscope $end
$upscope $end
$upscope $end
$scope begin $unm_blk_21 $end
$scope begin $ivl_for_loop5 $end
$scope begin $ivl_for_loop6 $end
$upscope $end
$upscope $end
$scope begin $unm_blk_28 $end
$upscope $end
$upscope $end
$upscope $end
$scope begin $unm_blk_30 $end
$var real 1 [ F1 $end
$var real 1 \ F2 $end
$var real 1 ] FS_IN $end
$var integer 32 ^ N_SAMPLES [31:0] $end
$var real 1 _ PI $end
$var real 1 ` SCALE_FACTOR $end
$var real 1 a step1 $end
$var real 1 b step2 $end
$var real 1 c theta1 $end
$var real 1 d theta2 $end
$var integer 32 e val_int [31:0] $end
$var real 1 f val_raw $end
$scope begin $ivl_for_loop7 $end
$var integer 32 g i [31:0] $end
$upscope $end
$upscope $end
$upscope $end
$enddefinitions $end
$comment Show the parameter values. $end
$dumpall
b11100010 O
b1110001 N
b10 M
0L
b1 K
b10000 J
b10000 I
b110100101101110011101000110010101110010011100000101111101101100001100100101111100110010001100100011011000101110011011010110010101101101 H
b11 :
b1 9
b11 8
17
b10 6
b10000 5
b10000 4
b110010001100101011000110110100101101101010111110110110100110011010111110111000001100001011100110111001100101110011011010110010101101101 3
b11 ,
b1 +
b11 *
b11100010 )
b1110001 (
b10 '
b10000 &
b1010 %
$end
#0
$dumpvars
b0 g
r0 f
b0 e
r0 d
r0 c
r0 b
r0 a
r15000 `
r3.141592653589793 _
b11001000 ^
r9000000 ]
r4000000 \
r1000000 [
b0 Z
b0 Y
b0 X
b11100010 W
b1110001 V
b1110001 U
b0 T
b0 S
b0 R
b0 Q
0P
b0 G
bx F
b0 E
b0 D
b0 C
b11 B
b1 A
b1 @
b0 ?
b0 >
b0 =
b0 <
0;
b0 2
bx 1
00
b0 /
0.
0-
b0 $
0#
b0 "
0!
$end
#5000
b11 B
b1 A
b1 @
b11100010 W
b1110001 V
b1110001 U
1-
#10000
0-
#15000
b11 B
b1 A
b1 @
b11100010 W
b1110001 V
b1110001 U
1-
#20000
0-
#25000
b11 B
b1 A
b1 @
b11100010 W
b1110001 V
b1110001 U
1-
#30000
0-
#35000
b11 B
b1 A
b1 @
b11100010 W
b1110001 V
b1110001 U
1-
#40000
0-
#45000
b11 B
b1 A
b1 @
b11100010 W
b1110001 V
b1110001 U
1-
#50000
0-
#55000
b11 B
b1 A
b1 @
b11100010 W
b1110001 V
b1110001 U
1-
#60000
0-
#65000
b11 B
b1 A
b1 @
b11100010 W
b1110001 V
b1110001 U
1-
#70000
0-
#75000
b11 B
b1 A
b1 @
b11100010 W
b1110001 V
b1110001 U
1-
#80000
0-
#85000
b11 B
b1 A
b1 @
b11100010 W
b1110001 V
b1110001 U
1-
#90000
0-
#95000
b11 B
b1 A
b1 @
b11100010 W
b1110001 V
b1110001 U
1-
#100000
0-
1.
#105000
10
r2.792526803190927 b
r0.6981317007977318 a
b10000000000000000000000000000011 1
1-
#110000
0-
#115000
b1 S
b1 T
1P
00
1-
#120000
0-
#125000
1#
b10 S
0P
b10 X
b1110001 Y
b1 Z
1-
#130000
0-
#135000
b10 ?
1;
b0 T
b0 S
1P
0#
1-
#140000
0-
#145000
1#
0P
0;
b11 D
b1 E
b0 Z
b1110001 Y
b10 X
1-
#150000
0-
#155000
0#
b1 ?
1;
1-
#160000
0-
#165000
0;
b1 E
b11 D
b10 C
1-
#170000
0-
#175000
1-
#180000
0-
#185000
1-
#190000
0-
#195000
1-
#200000
0-
#205000
1-
#210000
0-
#215000
1-
#220000
0-
#225000
1-
#230000
0-
#235000
1-
#240000
0-
#245000
1-
#250000
0-
#255000
1-
#260000
0-
#265000
b11100110110100 /
b11100110110100 G
10
b11100110110100 e
r0.9848077530122081 f
b1 g
r2.792526803190927 d
r0.6981317007977318 c
1-
#270000
0-
#275000
b1 S
b1 T
1P
00
1-
#280000
0-
#285000
1#
b10 S
0P
b1 Z
b1110001 Y
b10 X
1-
#290000
0-
#295000
b0 ?
1;
b0 T
b0 S
1P
0#
1-
#300000
0-
#305000
1!
1#
0P
0;
b0 F
b1 E
b11 D
b1 C
b0 Z
b1110001 Y
b10 X
1-
#310000
0-
#315000
0#
b10 ?
1;
0!
1-
#320000
0-
#325000
0;
b1 E
b11 D
b0 C
1-
#330000
0-
#335000
1-
#340000
0-
#345000
1-
#350000
0-
#355000
1-
#360000
0-
#365000
1-
#370000
0-
#375000
1-
#380000
0-
#385000
1-
#390000
0-
#395000
1-
#400000
0-
#405000
1-
#410000
0-
#415000
1-
#420000
0-
#425000
b1010000001010 /
b1010000001010 G
10
b1010000001010 e
r0.3420201433256684 f
b10 g
r5.585053606381854 d
r1.396263401595464 c
1-
#430000
0-
#435000
b1 S
b1 T
1P
00
1-
#440000
0-
#445000
1#
b10 S
0P
b1 Z
b1110001 Y
b10 X
1-
#450000
0-
#455000
b1 ?
1;
b0 T
b0 S
1P
0#
1-
#460000
0-
#465000
1#
0P
0;
b1 E
b11 D
b10 C
b0 Z
b1110001 Y
b10 X
1-
#470000
0-
#475000
0#
b0 ?
1;
1-
#480000
0-
#485000
1!
0;
b1 E
b11 D
b1 C
1-
#490000
0-
#495000
0!
1-
#500000
0-
#505000
1-
#510000
0-
#515000
1-
#520000
0-
#525000
1-
#530000
0-
#535000
1-
#540000
0-
#545000
1-
#550000
0-
#555000
1-
#560000
0-
#565000
1-
#570000
0-
#575000
1-
#580000
0-
#585000
b110010101111101 /
b110010101111101 G
10
b110010101111101 e
r1.732050807568878 f
b11 g
r2.094395102393195 d
r2.094395102393195 c
1-
#590000
0-
#595000
b1 S
b1 T
1P
00
1-
#600000
0-
#605000
1#
b10 S
0P
b1 Z
b1110001 Y
b10 X
1-
#610000
0-
#615000
b10 ?
1;
b0 T
b0 S
1P
0#
1-
#620000
0-
#625000
b1111111111111111 $
b1111111111111111 2
b1111111111111111 Q
1#
0P
0;
b1 E
b11 D
b0 C
b0 Z
b1110001 Y
b10 X
1-
#630000
0-
#635000
0#
b1 ?
1;
1-
#640000
0-
#645000
0;
b1 E
b11 D
b10 C
1-
#650000
0-
#655000
1-
#660000
0-
#665000
1-
#670000
0-
#675000
1-
#680000
0-
#685000
1-
#690000
0-
#695000
1-
#700000
0-
#705000
1-
#710000
0-
#715000
1-
#720000
0-
#725000
1-
#730000
0-
#735000
1-
#740000
0-
#745000
b1101101001010110 /
b1101101001010110 G
10
b11111111111111111101101001010110 e
r-0.6427876096865393 f
b100 g
r4.886921905584122 d
r2.792526803190927 c
1-
#750000
0-
#755000
b1 S
b1 T
1P
00
1-
#760000
0-
#765000
b1111111111111110 $
b1111111111111110 2
b1111111111111110 Q
1#
b10 S
0P
b1 Z
b1110001 Y
b10 X
1-
#770000
0-
#775000
b0 ?
1;
b0 T
b0 S
1P
0#
1-
#780000
0-
#785000
1!
b1111111111111100 $
b1111111111111100 2
b1111111111111100 Q
1#
0P
0;
b1 E
b11 D
b1 C
b0 Z
b1110001 Y
b10 X
1-
#790000
0-
#795000
0#
b10 ?
1;
0!
1-
#800000
0-
#805000
0;
b1 E
b11 D
b0 C
1-
#810000
0-
#815000
1-
#820000
0-
#825000
1-
#830000
0-
#835000
1-
#840000
0-
#845000
1-
#850000
0-
#855000
1-
#860000
0-
#865000
1-
#870000
0-
#875000
1-
#880000
0-
#885000
1-
#890000
0-
#895000
1-
#900000
0-
#905000
b10010110101010 /
b10010110101010 G
10
b10010110101010 e
r0.6427876096865395 f
b101 g
r1.396263401595464 d
r3.490658503988659 c
1-
#910000
0-
#915000
b1 S
b1 T
1P
00
1-
#920000
0-
#925000
b1111111111111011 $
b1111111111111011 2
b1111111111111011 Q
1#
b10 S
0P
b1 Z
b1110001 Y
b10 X
1-
#930000
0-
#935000
b1 ?
1;
b0 T
b0 S
1P
0#
1-
#940000
0-
#945000
1#
0P
0;
b1 E
b11 D
b10 C
b0 Z
b1110001 Y
b10 X
1-
#950000
0-
#955000
0#
b0 ?
1;
1-
#960000
0-
#965000
1!
0;
b1 E
b11 D
b1 C
1-
#970000
0-
#975000
0!
1-
#980000
0-
#985000
1-
#990000
0-
#995000
1-
#1000000
0-
#1005000
1-
#1010000
0-
#1015000
1-
#1020000
0-
#1025000
1-
#1030000
0-
#1035000
1-
#1040000
0-
#1045000
1-
#1050000
0-
#1055000
1-
#1060000
0-
#1065000
b1001101010000011 /
b1001101010000011 G
10
b11111111111111111001101010000011 e
r-1.732050807568877 f
b110 g
r4.188790204786391 d
r4.188790204786391 c
1-
#1070000
0-
#1075000
b1 S
b1 T
1P
00
1-
#1080000
0-
#1085000
1#
b10 S
0P
b1 Z
b1110001 Y
b10 X
1-
#1090000
0-
#1095000
b10 ?
1;
b0 T
b0 S
1P
0#
1-
#1100000
0-
#1105000
b11111111111111110000000000000010 =
b1111111111111101 $
b1111111111111101 2
b1111111111111101 Q
1#
0P
0;
b1 E
b11 D
b0 C
b0 Z
b1110001 Y
b10 X
1-
#1110000
0-
#1115000
0#
b1 ?
1;
1-
#1120000
0-
#1125000
0;
b1 E
b11 D
b10 C
1-
#1130000
0-
#1135000
1-
#1140000
0-
#1145000
1-
#1150000
0-
#1155000
1-
#1160000
0-
#1165000
1-
#1170000
0-
#1175000
1-
#1180000
0-
#1185000
1-
#1190000
0-
#1195000
1-
#1200000
0-
#1205000
1-
#1210000
0-
#1215000
1-
#1220000
0-
#1225000
b1110101111110110 /
b1110101111110110 G
10
b11111111111111111110101111110110 e
r-0.3420201433256681 f
b111 g
r0.6981317007977328 d
r4.886921905584122 c
1-
#1230000
0-
#1235000
b1 S
b1 T
1P
00
1-
#1240000
0-
#1245000
b1111111111111100 $
b1111111111111100 2
b1111111111111100 Q
1#
b10 S
0P
b1 Z
b1110001 Y
b10 X
1-
#1250000
0-
#1255000
b0 ?
1;
b0 T
b0 S
1P
0#
1-
#1260000
0-
#1265000
b0 =
1!
b1111111111111110 "
b1111111111111110 <
b1111111111111110 $
b1111111111111110 2
b1111111111111110 Q
1#
0P
0;
b11111111111111110000000000000010 F
b1 E
b11 D
b1 C
b0 Z
b1110001 Y
b10 X
1-
#1270000
0-
#1275000
0#
b10 ?
1;
0!
1-
#1280000
0-
#1285000
b11111111111111011000000000000101 =
0;
b1 E
b11 D
b0 C
1-
#1290000
0-
#1295000
1-
#1300000
0-
#1305000
1-
#1310000
0-
#1315000
1-
#1320000
0-
#1325000
1-
#1330000
0-
#1335000
1-
#1340000
0-
#1345000
1-
#1350000
0-
#1355000
1-
#1360000
0-
#1365000
1-
#1370000
0-
#1375000
1-
#1380000
0-
#1385000
b1100011001001100 /
b1100011001001100 G
10
b11111111111111111100011001001100 e
r-0.984807753012209 f
b1000 g
r3.49065850398866 d
r5.585053606381854 c
1-
#1390000
0-
#1395000
b1 S
b1 T
1P
00
1-
#1400000
0-
#1405000
b0 $
b0 2
b0 Q
1#
b10 S
0P
b1 Z
b1110001 Y
b10 X
1-
#1410000
0-
#1415000
b1 ?
1;
b0 T
b0 S
1P
0#
1-
#1420000
0-
#1425000
b1 $
b1 2
b1 Q
1#
0P
0;
b1 E
b11 D
b10 C
b0 Z
b1110001 Y
b10 X
1-
#1430000
0-
#1435000
0#
b0 ?
1;
1-
#1440000
0-
#1445000
b0 =
1!
b1111111111111011 "
b1111111111111011 <
0;
b11111111111111011000000000000101 F
b1 E
b11 D
b1 C
1-
#1450000
0-
#1455000
0!
1-
#1460000
0-
#1465000
1-
#1470000
0-
#1475000
1-
#1480000
0-
#1485000
1-
#1490000
0-
#1495000
1-
#1500000
0-
#1505000
1-
#1510000
0-
#1515000
1-
#1520000
0-
#1525000
1-
#1530000
0-
#1535000
1-
#1540000
0-
#1545000
b0 /
b0 G
10
b0 e
r6.432490598706545e-16 f
b1001 g
r8.881784197001252e-16 d
r6.283185307179586 c
1-
#1550000
0-
#1555000
b1 S
b1 T
1P
00
1-
#1560000
0-
#1565000
b10 $
b10 2
b10 Q
1#
b10 S
0P
b1 Z
b1110001 Y
b10 X
1-
#1570000
0-
#1575000
b10 ?
1;
b0 T
b0 S
1P
0#
1-
#1580000
0-
#1585000
b11111111111111100000000000000100 =
b100 $
b100 2
b100 Q
1#
0P
0;
b1 E
b11 D
b0 C
b0 Z
b1110001 Y
b10 X
1-
#1590000
0-
#1595000
0#
b1 ?
1;
1-
#1600000
0-
#1605000
0;
b1 E
b11 D
b10 C
1-
#1610000
0-
#1615000
1-
#1620000
0-
#1625000
1-
#1630000
0-
#1635000
1-
#1640000
0-
#1645000
1-
#1650000
0-
#1655000
1-
#1660000
0-
#1665000
1-
#1670000
0-
#1675000
1-
#1680000
0-
#1685000
1-
#1690000
0-
#1695000
1-
#1700000
0-
#1705000
b11100110110100 /
b11100110110100 G
10
b11100110110100 e
r0.9848077530122075 f
b1010 g
r2.792526803190928 d
r0.6981317007977319 c
1-
#1710000
0-
#1715000
b1 S
b1 T
1P
00
1-
#1720000
0-
#1725000
b101 $
b101 2
b101 Q
1#
b10 S
0P
b1 Z
b1110001 Y
b10 X
1-
#1730000
0-
#1735000
b0 ?
1;
b0 T
b0 S
1P
0#
1-
#1740000
0-
#1745000
b0 =
1!
b1111111111111100 "
b1111111111111100 <
b100 $
b100 2
b100 Q
1#
0P
0;
b11111111111111100000000000000100 F
b1 E
b11 D
b1 C
b0 Z
b1110001 Y
b10 X
1-
#1750000
0-
#1755000
0#
b10 ?
1;
0!
1-
#1760000
0-
#1765000
b111111111111111 =
0;
b1 E
b11 D
b0 C
1-
#1770000
0-
#1775000
1-
#1780000
0-
#1785000
1-
#1790000
0-
#1795000
1-
#1800000
0-
#1805000
1-
#1810000
0-
#1815000
1-
#1820000
0-
#1825000
1-
#1830000
0-
#1835000
1-
#1840000
0-
#1845000
1-
#1850000
0-
#1855000
1-
#1860000
0-
#1865000
b1010000001010 /
b1010000001010 G
10
b1010000001010 e
r0.3420201433256692 f
b1011 g
r5.585053606381855 d
r1.396263401595464 c
1-
#1870000
0-
#1875000
b1 S
b1 T
1P
00
1-
#1880000
0-
#1885000
b10 $
b10 2
b10 Q
1#
b10 S
0P
b1 Z
b1110001 Y
b10 X
1-
#1890000
0-
#1895000
b1 ?
1;
b0 T
b0 S
1P
0#
1-
#1900000
0-
#1905000
b1 $
b1 2
b1 Q
1#
0P
0;
b1 E
b11 D
b10 C
b0 Z
b1110001 Y
b10 X
1-
#1910000
0-
#1915000
0#
b0 ?
1;
1-
#1920000
0-
#1925000
b0 =
1!
b0 "
b0 <
0;
b111111111111111 F
b1 E
b11 D
b1 C
1-
#1930000
0-
#1935000
0!
1-
#1940000
0-
#1945000
1-
#1950000
0-
#1955000
1-
#1960000
0-
#1965000
1-
#1970000
0-
#1975000
1-
#1980000
0-
#1985000
1-
#1990000
0-
#1995000
1-
#2000000
0-
#2005000
1-
#2010000
0-
#2015000
1-
#2020000
0-
#2025000
b110010101111101 /
b110010101111101 G
10
b110010101111101 e
r1.732050807568877 f
b1100 g
r2.094395102393197 d
r2.094395102393196 c
1-
#2030000
0-
#2035000
b1 S
b1 T
1P
00
1-
#2040000
0-
#2045000
b10 $
b10 2
b10 Q
1#
b10 S
0P
b1 Z
b1110001 Y
b10 X
1-
#2050000
0-
#2055000
b10 ?
1;
b0 T
b0 S
1P
0#
1-
#2060000
0-
#2065000
b100111111111111011 =
b1 $
b1 2
b1 Q
1#
0P
0;
b1 E
b11 D
b0 C
b0 Z
b1110001 Y
b10 X
1-
#2070000
0-
#2075000
0#
b1 ?
1;
1-
#2080000
0-
#2085000
0;
b1 E
b11 D
b10 C
1-
#2090000
0-
#2095000
1-
#2100000
0-
#2105000
1-
#2110000
0-
#2115000
1-
#2120000
0-
#2125000
1-
#2130000
0-
#2135000
1-
#2140000
0-
#2145000
1-
#2150000
0-
#2155000
1-
#2160000
0-
#2165000
1-
#2170000
0-
#2175000
1-
#2180000
0-
#2185000
b1101101001010110 /
b1101101001010110 G
10
b11111111111111111101101001010110 e
r-0.6427876096865394 f
b1101 g
r4.886921905584124 d
r2.792526803190928 c
1-
#2190000
0-
#2195000
b1 S
b1 T
1P
00
1-
#2200000
0-
#2205000
b1111111111111110 $
b1111111111111110 2
b1111111111111110 Q
1#
b10 S
0P
b1 Z
b1110001 Y
b10 X
1-
#2210000
0-
#2215000
b0 ?
1;
b0 T
b0 S
1P
0#
1-
#2220000
0-
#2225000
b0 =
1!
b100 "
b100 <
b1111111111111011 $
b1111111111111011 2
b1111111111111011 Q
1#
0P
0;
b100111111111111011 F
b1 E
b11 D
b1 C
b0 Z
b1110001 Y
b10 X
1-
#2230000
0-
#2235000
0#
b10 ?
1;
0!
1-
#2240000
0-
#2245000
b111111111111111 =
0;
b1 E
b11 D
b0 C
1-
#2250000
0-
#2255000
1-
#2260000
0-
#2265000
1-
#2270000
0-
#2275000
1-
#2280000
0-
#2285000
1-
#2290000
0-
#2295000
1-
#2300000
0-
#2305000
1-
#2310000
0-
#2315000
1-
#2320000
0-
#2325000
1-
#2330000
0-
#2335000
1-
#2340000
0-
#2345000
b10010110101010 /
b10010110101010 G
10
b10010110101010 e
r0.6427876096865393 f
b1110 g
r1.396263401595466 d
r3.49065850398866 c
1-
#2350000
0-
#2355000
b1 S
b1 T
1P
00
1-
#2360000
0-
#2365000
b1111111111111010 $
b1111111111111010 2
b1111111111111010 Q
1#
b10 S
0P
b1 Z
b1110001 Y
b10 X
1-
#2370000
0-
#2375000
b1 ?
1;
b0 T
b0 S
1P
0#
1-
#2380000
0-
#2385000
b1111111111111100 $
b1111111111111100 2
b1111111111111100 Q
1#
0P
0;
b1 E
b11 D
b10 C
b0 Z
b1110001 Y
b10 X
1-
#2390000
0-
#2395000
0#
b0 ?
1;
1-
#2400000
0-
#2405000
b0 =
1!
b0 "
b0 <
0;
b111111111111111 F
b1 E
b11 D
b1 C
1-
#2410000
0-
#2415000
0!
1-
#2420000
0-
#2425000
1-
#2430000
0-
#2435000
1-
#2440000
0-
#2445000
1-
#2450000
0-
#2455000
1-
#2460000
0-
#2465000
1-
#2470000
0-
#2475000
1-
#2480000
0-
#2485000
1-
#2490000
0-
#2495000
1-
#2500000
0-
#2505000
b1001101010000011 /
b1001101010000011 G
10
b11111111111111111001101010000011 e
r-1.732050807568879 f
b1111 g
r4.188790204786393 d
r4.188790204786391 c
1-
#2510000
0-
#2515000
b1 S
b1 T
1P
00
1-
#2520000
0-
#2525000
b1111111111111011 $
b1111111111111011 2
b1111111111111011 Q
1#
b10 S
0P
b1 Z
b1110001 Y
b10 X
1-
#2530000
0-
#2535000
b10 ?
1;
b0 T
b0 S
1P
0#
1-
#2540000
0-
#2545000
b11111111111111110000000000000010 =
b1111111111111100 $
b1111111111111100 2
b1111111111111100 Q
1#
0P
0;
b1 E
b11 D
b0 C
b0 Z
b1110001 Y
b10 X
1-
#2550000
0-
#2555000
0#
b1 ?
1;
1-
#2560000
0-
#2565000
0;
b1 E
b11 D
b10 C
1-
#2570000
0-
#2575000
1-
#2580000
0-
#2585000
1-
#2590000
0-
#2595000
1-
#2600000
0-
#2605000
1-
#2610000
0-
#2615000
1-
#2620000
0-
#2625000
1-
#2630000
0-
#2635000
1-
#2640000
0-
#2645000
1-
#2650000
0-
#2655000
1-
#2660000
0-
#2665000
b1110101111110110 /
b1110101111110110 G
10
b11111111111111111110101111110110 e
r-0.3420201433256665 f
b10000 g
r0.6981317007977346 d
r4.886921905584123 c
1-
#2670000
0-
#2675000
b1 S
b1 T
1P
00
1-
#2680000
0-
#2685000
1#
b10 S
0P
b1 Z
b1110001 Y
b10 X
1-
#2690000
0-
#2695000
b0 ?
1;
b0 T
b0 S
1P
0#
1-
#2700000
0-
#2705000
b0 =
1!
b1111111111111110 "
b1111111111111110 <
b1111111111111111 $
b1111111111111111 2
b1111111111111111 Q
1#
0P
0;
b11111111111111110000000000000010 F
b1 E
b11 D
b1 C
b0 Z
b1110001 Y
b10 X
1-
#2710000
0-
#2715000
0#
b10 ?
1;
0!
1-
#2720000
0-
#2725000
b11111111111111100000000000000100 =
0;
b1 E
b11 D
b0 C
1-
#2730000
0-
#2735000
1-
#2740000
0-
#2745000
1-
#2750000
0-
#2755000
1-
#2760000
0-
#2765000
1-
#2770000
0-
#2775000
1-
#2780000
0-
#2785000
1-
#2790000
0-
#2795000
1-
#2800000
0-
#2805000
1-
#2810000
0-
#2815000
1-
#2820000
0-
#2825000
b1100011001001100 /
b1100011001001100 G
10
b11111111111111111100011001001100 e
r-0.9848077530122101 f
b10001 g
r3.490658503988662 d
r5.585053606381855 c
1-
#2830000
0-
#2835000
b1 S
b1 T
1P
00
1-
#2840000
0-
#2845000
b1111111111111110 $
b1111111111111110 2
b1111111111111110 Q
1#
b10 S
0P
b1 Z
b1110001 Y
b10 X
1-
#2850000
0-
#2855000
b1 ?
1;
b0 T
b0 S
1P
0#
1-
#2860000
0-
#2865000
b1111111111111111 $
b1111111111111111 2
b1111111111111111 Q
1#
0P
0;
b1 E
b11 D
b10 C
b0 Z
b1110001 Y
b10 X
1-
#2870000
0-
#2875000
0#
b0 ?
1;
1-
#2880000
0-
#2885000
b0 =
1!
b1111111111111100 "
b1111111111111100 <
0;
b11111111111111100000000000000100 F
b1 E
b11 D
b1 C
1-
#2890000
0-
#2895000
0!
1-
#2900000
0-
#2905000
1-
#2910000
0-
#2915000
1-
#2920000
0-
#2925000
1-
#2930000
0-
#2935000
1-
#2940000
0-
#2945000
1-
#2950000
0-
#2955000
1-
#2960000
0-
#2965000
1-
#2970000
0-
#2975000
1-
#2980000
0-
#2985000
b0 /
b0 G
10
b0 e
r3.552713678800501e-15 f
b10010 g
r2.664535259100376e-15 d
r8.881784197001252e-16 c
1-
#2990000
0-
#2995000
b1 S
b1 T
1P
00
1-
#3000000
0-
#3005000
b10 $
b10 2
b10 Q
1#
b10 S
0P
b1 Z
b1110001 Y
b10 X
1-
#3010000
0-
#3015000
b10 ?
1;
b0 T
b0 S
1P
0#
1-
#3020000
0-
#3025000
b11111111111111100000000000000100 =
b110 $
b110 2
b110 Q
1#
0P
0;
b1 E
b11 D
b0 C
b0 Z
b1110001 Y
b10 X
1-
#3030000
0-
#3035000
0#
b1 ?
1;
1-
#3040000
0-
#3045000
0;
b1 E
b11 D
b10 C
1-
#3050000
0-
#3055000
1-
#3060000
0-
#3065000
1-
#3070000
0-
#3075000
1-
#3080000
0-
#3085000
1-
#3090000
0-
#3095000
1-
#3100000
0-
#3105000
1-
#3110000
0-
#3115000
1-
#3120000
0-
#3125000
1-
#3130000
0-
#3135000
1-
#3140000
0-
#3145000
b11100110110100 /
b11100110110100 G
10
b11100110110100 e
r0.9848077530122064 f
b10011 g
r2.79252680319093 d
r0.6981317007977327 c
1-
#3150000
0-
#3155000
b1 S
b1 T
1P
00
1-
#3160000
0-
#3165000
b1000 $
b1000 2
b1000 Q
1#
b10 S
0P
b1 Z
b1110001 Y
b10 X
1-
#3170000
0-
#3175000
b0 ?
1;
b0 T
b0 S
1P
0#
1-
#3180000
0-
#3185000
b0 =
1!
b10 $
b10 2
b10 Q
1#
0P
0;
b1 E
b11 D
b1 C
b0 Z
b1110001 Y
b10 X
1-
#3190000
0-
#3195000
0#
b10 ?
1;
0!
1-
#3200000
0-
#3205000
b11111111111111111000000000000001 =
0;
b1 E
b11 D
b0 C
1-
#3210000
0-
#3215000
1-
#3220000
0-
#3225000
1-
#3230000
0-
#3235000
1-
#3240000
0-
#3245000
1-
#3250000
0-
#3255000
1-
#3260000
0-
#3265000
1-
#3270000
0-
#3275000
1-
#3280000
0-
#3285000
1-
#3290000
0-
#3295000
1-
#3300000
0-
#3305000
b1010000001010 /
b1010000001010 G
10
b1010000001010 e
r0.3420201433256708 f
b10100 g
r5.585053606381857 d
r1.396263401595464 c
1-
#3310000
0-
#3315000
b1 S
b1 T
1P
00
1-
#3320000
0-
#3325000
b0 $
b0 2
b0 Q
1#
b10 S
0P
b1 Z
b1110001 Y
b10 X
1-
#3330000
0-
#3335000
b1 ?
1;
b0 T
b0 S
1P
0#
1-
#3340000
0-
#3345000
1#
0P
0;
b1 E
b11 D
b10 C
b0 Z
b1110001 Y
b10 X
1-
#3350000
0-
#3355000
0#
b0 ?
1;
1-
#3360000
0-
#3365000
b0 =
1!
b1111111111111111 "
b1111111111111111 <
0;
b11111111111111111000000000000001 F
b1 E
b11 D
b1 C
1-
#3370000
0-
#3375000
0!
1-
#3380000
0-
#3385000
1-
#3390000
0-
#3395000
1-
#3400000
0-
#3405000
1-
#3410000
0-
#3415000
1-
#3420000
0-
#3425000
1-
#3430000
0-
#3435000
1-
#3440000
0-
#3445000
1-
#3450000
0-
#3455000
1-
#3460000
0-
#3465000
b110010101111101 /
b110010101111101 G
10
b110010101111101 e
r1.732050807568876 f
b10101 g
r2.094395102393198 d
r2.094395102393196 c
1-
#3470000
0-
#3475000
b1 S
b1 T
1P
00
1-
#3480000
0-
#3485000
b11 $
b11 2
b11 Q
1#
b10 S
0P
b1 Z
b1110001 Y
b10 X
1-
#3490000
0-
#3495000
b10 ?
1;
b0 T
b0 S
1P
0#
1-
#3500000
0-
#3505000
b111111111111111000 =
b10 $
b10 2
b10 Q
1#
0P
0;
b1 E
b11 D
b0 C
b0 Z
b1110001 Y
b10 X
1-
#3510000
0-
#3515000
0#
b1 ?
1;
1-
#3520000
0-
#3525000
0;
b1 E
b11 D
b10 C
1-
#3530000
0-
#3535000
1-
#3540000
0-
#3545000
1-
#3550000
0-
#3555000
1-
#3560000
0-
#3565000
1-
#3570000
0-
#3575000
1-
#3580000
0-
#3585000
1-
#3590000
0-
#3595000
1-
#3600000
0-
#3605000
1-
#3610000
0-
#3615000
1-
#3620000
0-
#3625000
b1101101001010110 /
b1101101001010110 G
10
b11111111111111111101101001010110 e
r-0.6427876096865395 f
b10110 g
r4.886921905584126 d
r2.792526803190928 c
1-
#3630000
0-
#3635000
b1 S
b1 T
1P
00
1-
#3640000
0-
#3645000
b0 $
b0 2
b0 Q
1#
b10 S
0P
b1 Z
b1110001 Y
b10 X
1-
#3650000
0-
#3655000
b0 ?
1;
b0 T
b0 S
1P
0#
1-
#3660000
0-
#3665000
b0 =
1!
b111 "
b111 <
b1111111111111100 $
b1111111111111100 2
b1111111111111100 Q
1#
0P
0;
b111111111111111000 F
b1 E
b11 D
b1 C
b0 Z
b1110001 Y
b10 X
1-
#3670000
0-
#3675000
0#
b10 ?
1;
0!
1-
